\relax 
\catcode `"\active 
\catcode `<\active 
\catcode `>\active 
\@nameuse{es@quoting}
\babel@aux{spanish}{}
\@writefile{toc}{\contentsline {section}{\numberline {1} Automata }{1}}
\@writefile{toc}{\contentsline {subsection}{\numberline {1.1}Matriz}{1}}
\@writefile{lot}{\contentsline {table}{\numberline {1}{\ignorespaces tabla de estados}}{2}}
\@writefile{lot}{\contentsline {table}{\numberline {2}{\ignorespaces Tabla de transiciones}}{2}}
\@writefile{lot}{\contentsline {table}{\numberline {3}{\ignorespaces C\IeC {\'o}digos}}{3}}
\@writefile{toc}{\contentsline {section}{\numberline {2}Tipo de arquitectura }{3}}
